(['C:\\Users\\Marcin\\Desktop\\110a\\python\\110A-Cfg.py'],
 ['C:\\Users\\Marcin\\Desktop\\110a\\python',
  'C:\\Users\\Marcin\\Desktop\\110a\\python'],
 ['codecs'],
 ['C:\\Users\\Marcin\\AppData\\Local\\Programs\\Python\\Python39\\lib\\site-packages\\_pyinstaller_hooks_contrib\\hooks\\stdhooks',
  'C:\\Users\\Marcin\\AppData\\Local\\Programs\\Python\\Python39\\lib\\site-packages\\_pyinstaller_hooks_contrib\\hooks\\stdhooks\\__pycache__',
  'C:\\Users\\Marcin\\AppData\\Local\\Programs\\Python\\Python39\\lib\\site-packages\\_pyinstaller_hooks_contrib\\hooks\\rthooks',
  'C:\\Users\\Marcin\\AppData\\Local\\Programs\\Python\\Python39\\lib\\site-packages\\_pyinstaller_hooks_contrib\\hooks\\rthooks\\__pycache__',
  'C:\\Users\\Marcin\\AppData\\Local\\Programs\\Python\\Python39\\lib\\site-packages\\_pyinstaller_hooks_contrib\\hooks'],
 {},
 [],
 [],
 False,
 False,
 False,
 '3.9.7 (tags/v3.9.7:1016ef3, Aug 30 2021, 20:19:38) [MSC v.1929 64 bit '
 '(AMD64)]',
 [('pyi_rth_pkgutil',
   'C:\\Users\\Marcin\\AppData\\Local\\Programs\\Python\\Python39\\Lib\\site-packages\\PyInstaller\\hooks\\rthooks\\pyi_rth_pkgutil.py',
   'PYSOURCE'),
  ('pyi_rth_multiprocessing',
   'C:\\Users\\Marcin\\AppData\\Local\\Programs\\Python\\Python39\\Lib\\site-packages\\PyInstaller\\hooks\\rthooks\\pyi_rth_multiprocessing.py',
   'PYSOURCE'),
  ('pyi_rth_inspect',
   'C:\\Users\\Marcin\\AppData\\Local\\Programs\\Python\\Python39\\Lib\\site-packages\\PyInstaller\\hooks\\rthooks\\pyi_rth_inspect.py',
   'PYSOURCE'),
  ('pyi_rth_pyqt5',
   'C:\\Users\\Marcin\\AppData\\Local\\Programs\\Python\\Python39\\Lib\\site-packages\\PyInstaller\\hooks\\rthooks\\pyi_rth_pyqt5.py',
   'PYSOURCE'),
  ('110A-Cfg',
   'C:\\Users\\Marcin\\Desktop\\110a\\python\\110A-Cfg.py',
   'PYSOURCE')],
 [('os',
   'C:\\Users\\Marcin\\AppData\\Local\\Programs\\Python\\Python39\\lib\\os.py',
   'PYMODULE'),
  ('subprocess',
   'C:\\Users\\Marcin\\AppData\\Local\\Programs\\Python\\Python39\\lib\\subprocess.py',
   'PYMODULE'),
  ('selectors',
   'C:\\Users\\Marcin\\AppData\\Local\\Programs\\Python\\Python39\\lib\\selectors.py',
   'PYMODULE'),
  ('contextlib',
   'C:\\Users\\Marcin\\AppData\\Local\\Programs\\Python\\Python39\\lib\\contextlib.py',
   'PYMODULE'),
  ('threading',
   'C:\\Users\\Marcin\\AppData\\Local\\Programs\\Python\\Python39\\lib\\threading.py',
   'PYMODULE'),
  ('_threading_local',
   'C:\\Users\\Marcin\\AppData\\Local\\Programs\\Python\\Python39\\lib\\_threading_local.py',
   'PYMODULE'),
  ('signal',
   'C:\\Users\\Marcin\\AppData\\Local\\Programs\\Python\\Python39\\lib\\signal.py',
   'PYMODULE'),
  ('_strptime',
   'C:\\Users\\Marcin\\AppData\\Local\\Programs\\Python\\Python39\\lib\\_strptime.py',
   'PYMODULE'),
  ('datetime',
   'C:\\Users\\Marcin\\AppData\\Local\\Programs\\Python\\Python39\\lib\\datetime.py',
   'PYMODULE'),
  ('calendar',
   'C:\\Users\\Marcin\\AppData\\Local\\Programs\\Python\\Python39\\lib\\calendar.py',
   'PYMODULE'),
  ('argparse',
   'C:\\Users\\Marcin\\AppData\\Local\\Programs\\Python\\Python39\\lib\\argparse.py',
   'PYMODULE'),
  ('textwrap',
   'C:\\Users\\Marcin\\AppData\\Local\\Programs\\Python\\Python39\\lib\\textwrap.py',
   'PYMODULE'),
  ('shutil',
   'C:\\Users\\Marcin\\AppData\\Local\\Programs\\Python\\Python39\\lib\\shutil.py',
   'PYMODULE'),
  ('zipfile',
   'C:\\Users\\Marcin\\AppData\\Local\\Programs\\Python\\Python39\\lib\\zipfile.py',
   'PYMODULE'),
  ('py_compile',
   'C:\\Users\\Marcin\\AppData\\Local\\Programs\\Python\\Python39\\lib\\py_compile.py',
   'PYMODULE'),
  ('importlib.machinery',
   'C:\\Users\\Marcin\\AppData\\Local\\Programs\\Python\\Python39\\lib\\importlib\\machinery.py',
   'PYMODULE'),
  ('importlib',
   'C:\\Users\\Marcin\\AppData\\Local\\Programs\\Python\\Python39\\lib\\importlib\\__init__.py',
   'PYMODULE'),
  ('importlib.abc',
   'C:\\Users\\Marcin\\AppData\\Local\\Programs\\Python\\Python39\\lib\\importlib\\abc.py',
   'PYMODULE'),
  ('typing',
   'C:\\Users\\Marcin\\AppData\\Local\\Programs\\Python\\Python39\\lib\\typing.py',
   'PYMODULE'),
  ('importlib._bootstrap',
   'C:\\Users\\Marcin\\AppData\\Local\\Programs\\Python\\Python39\\lib\\importlib\\_bootstrap.py',
   'PYMODULE'),
  ('importlib._bootstrap_external',
   'C:\\Users\\Marcin\\AppData\\Local\\Programs\\Python\\Python39\\lib\\importlib\\_bootstrap_external.py',
   'PYMODULE'),
  ('importlib.metadata',
   'C:\\Users\\Marcin\\AppData\\Local\\Programs\\Python\\Python39\\lib\\importlib\\metadata.py',
   'PYMODULE'),
  ('configparser',
   'C:\\Users\\Marcin\\AppData\\Local\\Programs\\Python\\Python39\\lib\\configparser.py',
   'PYMODULE'),
  ('pathlib',
   'C:\\Users\\Marcin\\AppData\\Local\\Programs\\Python\\Python39\\lib\\pathlib.py',
   'PYMODULE'),
  ('urllib.parse',
   'C:\\Users\\Marcin\\AppData\\Local\\Programs\\Python\\Python39\\lib\\urllib\\parse.py',
   'PYMODULE'),
  ('urllib',
   'C:\\Users\\Marcin\\AppData\\Local\\Programs\\Python\\Python39\\lib\\urllib\\__init__.py',
   'PYMODULE'),
  ('email',
   'C:\\Users\\Marcin\\AppData\\Local\\Programs\\Python\\Python39\\lib\\email\\__init__.py',
   'PYMODULE'),
  ('email.parser',
   'C:\\Users\\Marcin\\AppData\\Local\\Programs\\Python\\Python39\\lib\\email\\parser.py',
   'PYMODULE'),
  ('email._policybase',
   'C:\\Users\\Marcin\\AppData\\Local\\Programs\\Python\\Python39\\lib\\email\\_policybase.py',
   'PYMODULE'),
  ('email.utils',
   'C:\\Users\\Marcin\\AppData\\Local\\Programs\\Python\\Python39\\lib\\email\\utils.py',
   'PYMODULE'),
  ('email._parseaddr',
   'C:\\Users\\Marcin\\AppData\\Local\\Programs\\Python\\Python39\\lib\\email\\_parseaddr.py',
   'PYMODULE'),
  ('socket',
   'C:\\Users\\Marcin\\AppData\\Local\\Programs\\Python\\Python39\\lib\\socket.py',
   'PYMODULE'),
  ('random',
   'C:\\Users\\Marcin\\AppData\\Local\\Programs\\Python\\Python39\\lib\\random.py',
   'PYMODULE'),
  ('statistics',
   'C:\\Users\\Marcin\\AppData\\Local\\Programs\\Python\\Python39\\lib\\statistics.py',
   'PYMODULE'),
  ('decimal',
   'C:\\Users\\Marcin\\AppData\\Local\\Programs\\Python\\Python39\\lib\\decimal.py',
   'PYMODULE'),
  ('_pydecimal',
   'C:\\Users\\Marcin\\AppData\\Local\\Programs\\Python\\Python39\\lib\\_pydecimal.py',
   'PYMODULE'),
  ('contextvars',
   'C:\\Users\\Marcin\\AppData\\Local\\Programs\\Python\\Python39\\lib\\contextvars.py',
   'PYMODULE'),
  ('fractions',
   'C:\\Users\\Marcin\\AppData\\Local\\Programs\\Python\\Python39\\lib\\fractions.py',
   'PYMODULE'),
  ('numbers',
   'C:\\Users\\Marcin\\AppData\\Local\\Programs\\Python\\Python39\\lib\\numbers.py',
   'PYMODULE'),
  ('hashlib',
   'C:\\Users\\Marcin\\AppData\\Local\\Programs\\Python\\Python39\\lib\\hashlib.py',
   'PYMODULE'),
  ('logging',
   'C:\\Users\\Marcin\\AppData\\Local\\Programs\\Python\\Python39\\lib\\logging\\__init__.py',
   'PYMODULE'),
  ('pickle',
   'C:\\Users\\Marcin\\AppData\\Local\\Programs\\Python\\Python39\\lib\\pickle.py',
   'PYMODULE'),
  ('pprint',
   'C:\\Users\\Marcin\\AppData\\Local\\Programs\\Python\\Python39\\lib\\pprint.py',
   'PYMODULE'),
  ('doctest',
   'C:\\Users\\Marcin\\AppData\\Local\\Programs\\Python\\Python39\\lib\\doctest.py',
   'PYMODULE'),
  ('unittest',
   'C:\\Users\\Marcin\\AppData\\Local\\Programs\\Python\\Python39\\lib\\unittest\\__init__.py',
   'PYMODULE'),
  ('unittest.async_case',
   'C:\\Users\\Marcin\\AppData\\Local\\Programs\\Python\\Python39\\lib\\unittest\\async_case.py',
   'PYMODULE'),
  ('asyncio',
   'C:\\Users\\Marcin\\AppData\\Local\\Programs\\Python\\Python39\\lib\\asyncio\\__init__.py',
   'PYMODULE'),
  ('asyncio.unix_events',
   'C:\\Users\\Marcin\\AppData\\Local\\Programs\\Python\\Python39\\lib\\asyncio\\unix_events.py',
   'PYMODULE'),
  ('asyncio.log',
   'C:\\Users\\Marcin\\AppData\\Local\\Programs\\Python\\Python39\\lib\\asyncio\\log.py',
   'PYMODULE'),
  ('asyncio.windows_events',
   'C:\\Users\\Marcin\\AppData\\Local\\Programs\\Python\\Python39\\lib\\asyncio\\windows_events.py',
   'PYMODULE'),
  ('asyncio.windows_utils',
   'C:\\Users\\Marcin\\AppData\\Local\\Programs\\Python\\Python39\\lib\\asyncio\\windows_utils.py',
   'PYMODULE'),
  ('tempfile',
   'C:\\Users\\Marcin\\AppData\\Local\\Programs\\Python\\Python39\\lib\\tempfile.py',
   'PYMODULE'),
  ('asyncio.selector_events',
   'C:\\Users\\Marcin\\AppData\\Local\\Programs\\Python\\Python39\\lib\\asyncio\\selector_events.py',
   'PYMODULE'),
  ('ssl',
   'C:\\Users\\Marcin\\AppData\\Local\\Programs\\Python\\Python39\\lib\\ssl.py',
   'PYMODULE'),
  ('base64',
   'C:\\Users\\Marcin\\AppData\\Local\\Programs\\Python\\Python39\\lib\\base64.py',
   'PYMODULE'),
  ('getopt',
   'C:\\Users\\Marcin\\AppData\\Local\\Programs\\Python\\Python39\\lib\\getopt.py',
   'PYMODULE'),
  ('asyncio.proactor_events',
   'C:\\Users\\Marcin\\AppData\\Local\\Programs\\Python\\Python39\\lib\\asyncio\\proactor_events.py',
   'PYMODULE'),
  ('asyncio.base_subprocess',
   'C:\\Users\\Marcin\\AppData\\Local\\Programs\\Python\\Python39\\lib\\asyncio\\base_subprocess.py',
   'PYMODULE'),
  ('asyncio.threads',
   'C:\\Users\\Marcin\\AppData\\Local\\Programs\\Python\\Python39\\lib\\asyncio\\threads.py',
   'PYMODULE'),
  ('asyncio.subprocess',
   'C:\\Users\\Marcin\\AppData\\Local\\Programs\\Python\\Python39\\lib\\asyncio\\subprocess.py',
   'PYMODULE'),
  ('asyncio.streams',
   'C:\\Users\\Marcin\\AppData\\Local\\Programs\\Python\\Python39\\lib\\asyncio\\streams.py',
   'PYMODULE'),
  ('asyncio.queues',
   'C:\\Users\\Marcin\\AppData\\Local\\Programs\\Python\\Python39\\lib\\asyncio\\queues.py',
   'PYMODULE'),
  ('asyncio.runners',
   'C:\\Users\\Marcin\\AppData\\Local\\Programs\\Python\\Python39\\lib\\asyncio\\runners.py',
   'PYMODULE'),
  ('asyncio.events',
   'C:\\Users\\Marcin\\AppData\\Local\\Programs\\Python\\Python39\\lib\\asyncio\\events.py',
   'PYMODULE'),
  ('asyncio.base_events',
   'C:\\Users\\Marcin\\AppData\\Local\\Programs\\Python\\Python39\\lib\\asyncio\\base_events.py',
   'PYMODULE'),
  ('concurrent.futures',
   'C:\\Users\\Marcin\\AppData\\Local\\Programs\\Python\\Python39\\lib\\concurrent\\futures\\__init__.py',
   'PYMODULE'),
  ('concurrent.futures.thread',
   'C:\\Users\\Marcin\\AppData\\Local\\Programs\\Python\\Python39\\lib\\concurrent\\futures\\thread.py',
   'PYMODULE'),
  ('queue',
   'C:\\Users\\Marcin\\AppData\\Local\\Programs\\Python\\Python39\\lib\\queue.py',
   'PYMODULE'),
  ('concurrent.futures.process',
   'C:\\Users\\Marcin\\AppData\\Local\\Programs\\Python\\Python39\\lib\\concurrent\\futures\\process.py',
   'PYMODULE'),
  ('multiprocessing.queues',
   'C:\\Users\\Marcin\\AppData\\Local\\Programs\\Python\\Python39\\lib\\multiprocessing\\queues.py',
   'PYMODULE'),
  ('multiprocessing.synchronize',
   'C:\\Users\\Marcin\\AppData\\Local\\Programs\\Python\\Python39\\lib\\multiprocessing\\synchronize.py',
   'PYMODULE'),
  ('multiprocessing.heap',
   'C:\\Users\\Marcin\\AppData\\Local\\Programs\\Python\\Python39\\lib\\multiprocessing\\heap.py',
   'PYMODULE'),
  ('multiprocessing.resource_tracker',
   'C:\\Users\\Marcin\\AppData\\Local\\Programs\\Python\\Python39\\lib\\multiprocessing\\resource_tracker.py',
   'PYMODULE'),
  ('multiprocessing.spawn',
   'C:\\Users\\Marcin\\AppData\\Local\\Programs\\Python\\Python39\\lib\\multiprocessing\\spawn.py',
   'PYMODULE'),
  ('runpy',
   'C:\\Users\\Marcin\\AppData\\Local\\Programs\\Python\\Python39\\lib\\runpy.py',
   'PYMODULE'),
  ('pkgutil',
   'C:\\Users\\Marcin\\AppData\\Local\\Programs\\Python\\Python39\\lib\\pkgutil.py',
   'PYMODULE'),
  ('zipimport',
   'C:\\Users\\Marcin\\AppData\\Local\\Programs\\Python\\Python39\\lib\\zipimport.py',
   'PYMODULE'),
  ('multiprocessing.process',
   'C:\\Users\\Marcin\\AppData\\Local\\Programs\\Python\\Python39\\lib\\multiprocessing\\process.py',
   'PYMODULE'),
  ('multiprocessing.util',
   'C:\\Users\\Marcin\\AppData\\Local\\Programs\\Python\\Python39\\lib\\multiprocessing\\util.py',
   'PYMODULE'),
  ('multiprocessing.forkserver',
   'C:\\Users\\Marcin\\AppData\\Local\\Programs\\Python\\Python39\\lib\\multiprocessing\\forkserver.py',
   'PYMODULE'),
  ('multiprocessing.context',
   'C:\\Users\\Marcin\\AppData\\Local\\Programs\\Python\\Python39\\lib\\multiprocessing\\context.py',
   'PYMODULE'),
  ('multiprocessing.popen_spawn_win32',
   'C:\\Users\\Marcin\\AppData\\Local\\Programs\\Python\\Python39\\lib\\multiprocessing\\popen_spawn_win32.py',
   'PYMODULE'),
  ('multiprocessing.popen_forkserver',
   'C:\\Users\\Marcin\\AppData\\Local\\Programs\\Python\\Python39\\lib\\multiprocessing\\popen_forkserver.py',
   'PYMODULE'),
  ('multiprocessing.popen_spawn_posix',
   'C:\\Users\\Marcin\\AppData\\Local\\Programs\\Python\\Python39\\lib\\multiprocessing\\popen_spawn_posix.py',
   'PYMODULE'),
  ('multiprocessing.popen_fork',
   'C:\\Users\\Marcin\\AppData\\Local\\Programs\\Python\\Python39\\lib\\multiprocessing\\popen_fork.py',
   'PYMODULE'),
  ('multiprocessing.sharedctypes',
   'C:\\Users\\Marcin\\AppData\\Local\\Programs\\Python\\Python39\\lib\\multiprocessing\\sharedctypes.py',
   'PYMODULE'),
  ('ctypes',
   'C:\\Users\\Marcin\\AppData\\Local\\Programs\\Python\\Python39\\lib\\ctypes\\__init__.py',
   'PYMODULE'),
  ('ctypes._endian',
   'C:\\Users\\Marcin\\AppData\\Local\\Programs\\Python\\Python39\\lib\\ctypes\\_endian.py',
   'PYMODULE'),
  ('multiprocessing.pool',
   'C:\\Users\\Marcin\\AppData\\Local\\Programs\\Python\\Python39\\lib\\multiprocessing\\pool.py',
   'PYMODULE'),
  ('multiprocessing.dummy',
   'C:\\Users\\Marcin\\AppData\\Local\\Programs\\Python\\Python39\\lib\\multiprocessing\\dummy\\__init__.py',
   'PYMODULE'),
  ('multiprocessing.dummy.connection',
   'C:\\Users\\Marcin\\AppData\\Local\\Programs\\Python\\Python39\\lib\\multiprocessing\\dummy\\connection.py',
   'PYMODULE'),
  ('multiprocessing.managers',
   'C:\\Users\\Marcin\\AppData\\Local\\Programs\\Python\\Python39\\lib\\multiprocessing\\managers.py',
   'PYMODULE'),
  ('multiprocessing.shared_memory',
   'C:\\Users\\Marcin\\AppData\\Local\\Programs\\Python\\Python39\\lib\\multiprocessing\\shared_memory.py',
   'PYMODULE'),
  ('secrets',
   'C:\\Users\\Marcin\\AppData\\Local\\Programs\\Python\\Python39\\lib\\secrets.py',
   'PYMODULE'),
  ('hmac',
   'C:\\Users\\Marcin\\AppData\\Local\\Programs\\Python\\Python39\\lib\\hmac.py',
   'PYMODULE'),
  ('multiprocessing.reduction',
   'C:\\Users\\Marcin\\AppData\\Local\\Programs\\Python\\Python39\\lib\\multiprocessing\\reduction.py',
   'PYMODULE'),
  ('multiprocessing.resource_sharer',
   'C:\\Users\\Marcin\\AppData\\Local\\Programs\\Python\\Python39\\lib\\multiprocessing\\resource_sharer.py',
   'PYMODULE'),
  ('multiprocessing.connection',
   'C:\\Users\\Marcin\\AppData\\Local\\Programs\\Python\\Python39\\lib\\multiprocessing\\connection.py',
   'PYMODULE'),
  ('xmlrpc.client',
   'C:\\Users\\Marcin\\AppData\\Local\\Programs\\Python\\Python39\\lib\\xmlrpc\\client.py',
   'PYMODULE'),
  ('xmlrpc',
   'C:\\Users\\Marcin\\AppData\\Local\\Programs\\Python\\Python39\\lib\\xmlrpc\\__init__.py',
   'PYMODULE'),
  ('gzip',
   'C:\\Users\\Marcin\\AppData\\Local\\Programs\\Python\\Python39\\lib\\gzip.py',
   'PYMODULE'),
  ('_compression',
   'C:\\Users\\Marcin\\AppData\\Local\\Programs\\Python\\Python39\\lib\\_compression.py',
   'PYMODULE'),
  ('xml.parsers.expat',
   'C:\\Users\\Marcin\\AppData\\Local\\Programs\\Python\\Python39\\lib\\xml\\parsers\\expat.py',
   'PYMODULE'),
  ('xml.parsers',
   'C:\\Users\\Marcin\\AppData\\Local\\Programs\\Python\\Python39\\lib\\xml\\parsers\\__init__.py',
   'PYMODULE'),
  ('xml',
   'C:\\Users\\Marcin\\AppData\\Local\\Programs\\Python\\Python39\\lib\\xml\\__init__.py',
   'PYMODULE'),
  ('xml.sax.expatreader',
   'C:\\Users\\Marcin\\AppData\\Local\\Programs\\Python\\Python39\\lib\\xml\\sax\\expatreader.py',
   'PYMODULE'),
  ('xml.sax.saxutils',
   'C:\\Users\\Marcin\\AppData\\Local\\Programs\\Python\\Python39\\lib\\xml\\sax\\saxutils.py',
   'PYMODULE'),
  ('urllib.request',
   'C:\\Users\\Marcin\\AppData\\Local\\Programs\\Python\\Python39\\lib\\urllib\\request.py',
   'PYMODULE'),
  ('getpass',
   'C:\\Users\\Marcin\\AppData\\Local\\Programs\\Python\\Python39\\lib\\getpass.py',
   'PYMODULE'),
  ('nturl2path',
   'C:\\Users\\Marcin\\AppData\\Local\\Programs\\Python\\Python39\\lib\\nturl2path.py',
   'PYMODULE'),
  ('ftplib',
   'C:\\Users\\Marcin\\AppData\\Local\\Programs\\Python\\Python39\\lib\\ftplib.py',
   'PYMODULE'),
  ('netrc',
   'C:\\Users\\Marcin\\AppData\\Local\\Programs\\Python\\Python39\\lib\\netrc.py',
   'PYMODULE'),
  ('shlex',
   'C:\\Users\\Marcin\\AppData\\Local\\Programs\\Python\\Python39\\lib\\shlex.py',
   'PYMODULE'),
  ('mimetypes',
   'C:\\Users\\Marcin\\AppData\\Local\\Programs\\Python\\Python39\\lib\\mimetypes.py',
   'PYMODULE'),
  ('http.cookiejar',
   'C:\\Users\\Marcin\\AppData\\Local\\Programs\\Python\\Python39\\lib\\http\\cookiejar.py',
   'PYMODULE'),
  ('http',
   'C:\\Users\\Marcin\\AppData\\Local\\Programs\\Python\\Python39\\lib\\http\\__init__.py',
   'PYMODULE'),
  ('urllib.response',
   'C:\\Users\\Marcin\\AppData\\Local\\Programs\\Python\\Python39\\lib\\urllib\\response.py',
   'PYMODULE'),
  ('urllib.error',
   'C:\\Users\\Marcin\\AppData\\Local\\Programs\\Python\\Python39\\lib\\urllib\\error.py',
   'PYMODULE'),
  ('xml.sax',
   'C:\\Users\\Marcin\\AppData\\Local\\Programs\\Python\\Python39\\lib\\xml\\sax\\__init__.py',
   'PYMODULE'),
  ('xml.sax.handler',
   'C:\\Users\\Marcin\\AppData\\Local\\Programs\\Python\\Python39\\lib\\xml\\sax\\handler.py',
   'PYMODULE'),
  ('xml.sax._exceptions',
   'C:\\Users\\Marcin\\AppData\\Local\\Programs\\Python\\Python39\\lib\\xml\\sax\\_exceptions.py',
   'PYMODULE'),
  ('xml.sax.xmlreader',
   'C:\\Users\\Marcin\\AppData\\Local\\Programs\\Python\\Python39\\lib\\xml\\sax\\xmlreader.py',
   'PYMODULE'),
  ('http.client',
   'C:\\Users\\Marcin\\AppData\\Local\\Programs\\Python\\Python39\\lib\\http\\client.py',
   'PYMODULE'),
  ('email.message',
   'C:\\Users\\Marcin\\AppData\\Local\\Programs\\Python\\Python39\\lib\\email\\message.py',
   'PYMODULE'),
  ('email.policy',
   'C:\\Users\\Marcin\\AppData\\Local\\Programs\\Python\\Python39\\lib\\email\\policy.py',
   'PYMODULE'),
  ('email.contentmanager',
   'C:\\Users\\Marcin\\AppData\\Local\\Programs\\Python\\Python39\\lib\\email\\contentmanager.py',
   'PYMODULE'),
  ('email.quoprimime',
   'C:\\Users\\Marcin\\AppData\\Local\\Programs\\Python\\Python39\\lib\\email\\quoprimime.py',
   'PYMODULE'),
  ('email.headerregistry',
   'C:\\Users\\Marcin\\AppData\\Local\\Programs\\Python\\Python39\\lib\\email\\headerregistry.py',
   'PYMODULE'),
  ('email.iterators',
   'C:\\Users\\Marcin\\AppData\\Local\\Programs\\Python\\Python39\\lib\\email\\iterators.py',
   'PYMODULE'),
  ('email.generator',
   'C:\\Users\\Marcin\\AppData\\Local\\Programs\\Python\\Python39\\lib\\email\\generator.py',
   'PYMODULE'),
  ('email._encoded_words',
   'C:\\Users\\Marcin\\AppData\\Local\\Programs\\Python\\Python39\\lib\\email\\_encoded_words.py',
   'PYMODULE'),
  ('quopri',
   'C:\\Users\\Marcin\\AppData\\Local\\Programs\\Python\\Python39\\lib\\quopri.py',
   'PYMODULE'),
  ('uu',
   'C:\\Users\\Marcin\\AppData\\Local\\Programs\\Python\\Python39\\lib\\uu.py',
   'PYMODULE'),
  ('optparse',
   'C:\\Users\\Marcin\\AppData\\Local\\Programs\\Python\\Python39\\lib\\optparse.py',
   'PYMODULE'),
  ('multiprocessing',
   'C:\\Users\\Marcin\\AppData\\Local\\Programs\\Python\\Python39\\lib\\multiprocessing\\__init__.py',
   'PYMODULE'),
  ('concurrent.futures._base',
   'C:\\Users\\Marcin\\AppData\\Local\\Programs\\Python\\Python39\\lib\\concurrent\\futures\\_base.py',
   'PYMODULE'),
  ('concurrent',
   'C:\\Users\\Marcin\\AppData\\Local\\Programs\\Python\\Python39\\lib\\concurrent\\__init__.py',
   'PYMODULE'),
  ('asyncio.trsock',
   'C:\\Users\\Marcin\\AppData\\Local\\Programs\\Python\\Python39\\lib\\asyncio\\trsock.py',
   'PYMODULE'),
  ('asyncio.staggered',
   'C:\\Users\\Marcin\\AppData\\Local\\Programs\\Python\\Python39\\lib\\asyncio\\staggered.py',
   'PYMODULE'),
  ('asyncio.tasks',
   'C:\\Users\\Marcin\\AppData\\Local\\Programs\\Python\\Python39\\lib\\asyncio\\tasks.py',
   'PYMODULE'),
  ('asyncio.base_tasks',
   'C:\\Users\\Marcin\\AppData\\Local\\Programs\\Python\\Python39\\lib\\asyncio\\base_tasks.py',
   'PYMODULE'),
  ('asyncio.locks',
   'C:\\Users\\Marcin\\AppData\\Local\\Programs\\Python\\Python39\\lib\\asyncio\\locks.py',
   'PYMODULE'),
  ('asyncio.sslproto',
   'C:\\Users\\Marcin\\AppData\\Local\\Programs\\Python\\Python39\\lib\\asyncio\\sslproto.py',
   'PYMODULE'),
  ('asyncio.transports',
   'C:\\Users\\Marcin\\AppData\\Local\\Programs\\Python\\Python39\\lib\\asyncio\\transports.py',
   'PYMODULE'),
  ('asyncio.protocols',
   'C:\\Users\\Marcin\\AppData\\Local\\Programs\\Python\\Python39\\lib\\asyncio\\protocols.py',
   'PYMODULE'),
  ('asyncio.futures',
   'C:\\Users\\Marcin\\AppData\\Local\\Programs\\Python\\Python39\\lib\\asyncio\\futures.py',
   'PYMODULE'),
  ('asyncio.exceptions',
   'C:\\Users\\Marcin\\AppData\\Local\\Programs\\Python\\Python39\\lib\\asyncio\\exceptions.py',
   'PYMODULE'),
  ('asyncio.coroutines',
   'C:\\Users\\Marcin\\AppData\\Local\\Programs\\Python\\Python39\\lib\\asyncio\\coroutines.py',
   'PYMODULE'),
  ('asyncio.base_futures',
   'C:\\Users\\Marcin\\AppData\\Local\\Programs\\Python\\Python39\\lib\\asyncio\\base_futures.py',
   'PYMODULE'),
  ('asyncio.format_helpers',
   'C:\\Users\\Marcin\\AppData\\Local\\Programs\\Python\\Python39\\lib\\asyncio\\format_helpers.py',
   'PYMODULE'),
  ('asyncio.constants',
   'C:\\Users\\Marcin\\AppData\\Local\\Programs\\Python\\Python39\\lib\\asyncio\\constants.py',
   'PYMODULE'),
  ('unittest.signals',
   'C:\\Users\\Marcin\\AppData\\Local\\Programs\\Python\\Python39\\lib\\unittest\\signals.py',
   'PYMODULE'),
  ('unittest.main',
   'C:\\Users\\Marcin\\AppData\\Local\\Programs\\Python\\Python39\\lib\\unittest\\main.py',
   'PYMODULE'),
  ('unittest.runner',
   'C:\\Users\\Marcin\\AppData\\Local\\Programs\\Python\\Python39\\lib\\unittest\\runner.py',
   'PYMODULE'),
  ('unittest.loader',
   'C:\\Users\\Marcin\\AppData\\Local\\Programs\\Python\\Python39\\lib\\unittest\\loader.py',
   'PYMODULE'),
  ('unittest.suite',
   'C:\\Users\\Marcin\\AppData\\Local\\Programs\\Python\\Python39\\lib\\unittest\\suite.py',
   'PYMODULE'),
  ('unittest.case',
   'C:\\Users\\Marcin\\AppData\\Local\\Programs\\Python\\Python39\\lib\\unittest\\case.py',
   'PYMODULE'),
  ('unittest._log',
   'C:\\Users\\Marcin\\AppData\\Local\\Programs\\Python\\Python39\\lib\\unittest\\_log.py',
   'PYMODULE'),
  ('unittest.result',
   'C:\\Users\\Marcin\\AppData\\Local\\Programs\\Python\\Python39\\lib\\unittest\\result.py',
   'PYMODULE'),
  ('unittest.util',
   'C:\\Users\\Marcin\\AppData\\Local\\Programs\\Python\\Python39\\lib\\unittest\\util.py',
   'PYMODULE'),
  ('pdb',
   'C:\\Users\\Marcin\\AppData\\Local\\Programs\\Python\\Python39\\lib\\pdb.py',
   'PYMODULE'),
  ('pydoc',
   'C:\\Users\\Marcin\\AppData\\Local\\Programs\\Python\\Python39\\lib\\pydoc.py',
   'PYMODULE'),
  ('webbrowser',
   'C:\\Users\\Marcin\\AppData\\Local\\Programs\\Python\\Python39\\lib\\webbrowser.py',
   'PYMODULE'),
  ('http.server',
   'C:\\Users\\Marcin\\AppData\\Local\\Programs\\Python\\Python39\\lib\\http\\server.py',
   'PYMODULE'),
  ('socketserver',
   'C:\\Users\\Marcin\\AppData\\Local\\Programs\\Python\\Python39\\lib\\socketserver.py',
   'PYMODULE'),
  ('html',
   'C:\\Users\\Marcin\\AppData\\Local\\Programs\\Python\\Python39\\lib\\html\\__init__.py',
   'PYMODULE'),
  ('html.entities',
   'C:\\Users\\Marcin\\AppData\\Local\\Programs\\Python\\Python39\\lib\\html\\entities.py',
   'PYMODULE'),
  ('pydoc_data.topics',
   'C:\\Users\\Marcin\\AppData\\Local\\Programs\\Python\\Python39\\lib\\pydoc_data\\topics.py',
   'PYMODULE'),
  ('pydoc_data',
   'C:\\Users\\Marcin\\AppData\\Local\\Programs\\Python\\Python39\\lib\\pydoc_data\\__init__.py',
   'PYMODULE'),
  ('tty',
   'C:\\Users\\Marcin\\AppData\\Local\\Programs\\Python\\Python39\\lib\\tty.py',
   'PYMODULE'),
  ('sysconfig',
   'C:\\Users\\Marcin\\AppData\\Local\\Programs\\Python\\Python39\\lib\\sysconfig.py',
   'PYMODULE'),
  ('_aix_support',
   'C:\\Users\\Marcin\\AppData\\Local\\Programs\\Python\\Python39\\lib\\_aix_support.py',
   'PYMODULE'),
  ('_bootsubprocess',
   'C:\\Users\\Marcin\\AppData\\Local\\Programs\\Python\\Python39\\lib\\_bootsubprocess.py',
   'PYMODULE'),
  ('_osx_support',
   'C:\\Users\\Marcin\\AppData\\Local\\Programs\\Python\\Python39\\lib\\_osx_support.py',
   'PYMODULE'),
  ('distutils.log',
   'C:\\Users\\Marcin\\AppData\\Local\\Programs\\Python\\Python39\\lib\\distutils\\log.py',
   'PYMODULE'),
  ('distutils',
   'C:\\Users\\Marcin\\AppData\\Local\\Programs\\Python\\Python39\\lib\\distutils\\__init__.py',
   'PYMODULE'),
  ('distutils.ccompiler',
   'C:\\Users\\Marcin\\AppData\\Local\\Programs\\Python\\Python39\\lib\\distutils\\ccompiler.py',
   'PYMODULE'),
  ('distutils.fancy_getopt',
   'C:\\Users\\Marcin\\AppData\\Local\\Programs\\Python\\Python39\\lib\\distutils\\fancy_getopt.py',
   'PYMODULE'),
  ('distutils.debug',
   'C:\\Users\\Marcin\\AppData\\Local\\Programs\\Python\\Python39\\lib\\distutils\\debug.py',
   'PYMODULE'),
  ('distutils.util',
   'C:\\Users\\Marcin\\AppData\\Local\\Programs\\Python\\Python39\\lib\\distutils\\util.py',
   'PYMODULE'),
  ('distutils.filelist',
   'C:\\Users\\Marcin\\AppData\\Local\\Programs\\Python\\Python39\\lib\\distutils\\filelist.py',
   'PYMODULE'),
  ('distutils.dep_util',
   'C:\\Users\\Marcin\\AppData\\Local\\Programs\\Python\\Python39\\lib\\distutils\\dep_util.py',
   'PYMODULE'),
  ('distutils.dir_util',
   'C:\\Users\\Marcin\\AppData\\Local\\Programs\\Python\\Python39\\lib\\distutils\\dir_util.py',
   'PYMODULE'),
  ('distutils.file_util',
   'C:\\Users\\Marcin\\AppData\\Local\\Programs\\Python\\Python39\\lib\\distutils\\file_util.py',
   'PYMODULE'),
  ('distutils.spawn',
   'C:\\Users\\Marcin\\AppData\\Local\\Programs\\Python\\Python39\\lib\\distutils\\spawn.py',
   'PYMODULE'),
  ('distutils.errors',
   'C:\\Users\\Marcin\\AppData\\Local\\Programs\\Python\\Python39\\lib\\distutils\\errors.py',
   'PYMODULE'),
  ('distutils.sysconfig',
   'C:\\Users\\Marcin\\AppData\\Local\\Programs\\Python\\Python39\\lib\\distutils\\sysconfig.py',
   'PYMODULE'),
  ('distutils.text_file',
   'C:\\Users\\Marcin\\AppData\\Local\\Programs\\Python\\Python39\\lib\\distutils\\text_file.py',
   'PYMODULE'),
  ('platform',
   'C:\\Users\\Marcin\\AppData\\Local\\Programs\\Python\\Python39\\lib\\platform.py',
   'PYMODULE'),
  ('plistlib',
   'C:\\Users\\Marcin\\AppData\\Local\\Programs\\Python\\Python39\\lib\\plistlib.py',
   'PYMODULE'),
  ('glob',
   'C:\\Users\\Marcin\\AppData\\Local\\Programs\\Python\\Python39\\lib\\glob.py',
   'PYMODULE'),
  ('code',
   'C:\\Users\\Marcin\\AppData\\Local\\Programs\\Python\\Python39\\lib\\code.py',
   'PYMODULE'),
  ('codeop',
   'C:\\Users\\Marcin\\AppData\\Local\\Programs\\Python\\Python39\\lib\\codeop.py',
   'PYMODULE'),
  ('dis',
   'C:\\Users\\Marcin\\AppData\\Local\\Programs\\Python\\Python39\\lib\\dis.py',
   'PYMODULE'),
  ('opcode',
   'C:\\Users\\Marcin\\AppData\\Local\\Programs\\Python\\Python39\\lib\\opcode.py',
   'PYMODULE'),
  ('bdb',
   'C:\\Users\\Marcin\\AppData\\Local\\Programs\\Python\\Python39\\lib\\bdb.py',
   'PYMODULE'),
  ('cmd',
   'C:\\Users\\Marcin\\AppData\\Local\\Programs\\Python\\Python39\\lib\\cmd.py',
   'PYMODULE'),
  ('inspect',
   'C:\\Users\\Marcin\\AppData\\Local\\Programs\\Python\\Python39\\lib\\inspect.py',
   'PYMODULE'),
  ('token',
   'C:\\Users\\Marcin\\AppData\\Local\\Programs\\Python\\Python39\\lib\\token.py',
   'PYMODULE'),
  ('ast',
   'C:\\Users\\Marcin\\AppData\\Local\\Programs\\Python\\Python39\\lib\\ast.py',
   'PYMODULE'),
  ('difflib',
   'C:\\Users\\Marcin\\AppData\\Local\\Programs\\Python\\Python39\\lib\\difflib.py',
   'PYMODULE'),
  ('__future__',
   'C:\\Users\\Marcin\\AppData\\Local\\Programs\\Python\\Python39\\lib\\__future__.py',
   'PYMODULE'),
  ('_compat_pickle',
   'C:\\Users\\Marcin\\AppData\\Local\\Programs\\Python\\Python39\\lib\\_compat_pickle.py',
   'PYMODULE'),
  ('string',
   'C:\\Users\\Marcin\\AppData\\Local\\Programs\\Python\\Python39\\lib\\string.py',
   'PYMODULE'),
  ('bisect',
   'C:\\Users\\Marcin\\AppData\\Local\\Programs\\Python\\Python39\\lib\\bisect.py',
   'PYMODULE'),
  ('email.feedparser',
   'C:\\Users\\Marcin\\AppData\\Local\\Programs\\Python\\Python39\\lib\\email\\feedparser.py',
   'PYMODULE'),
  ('email._header_value_parser',
   'C:\\Users\\Marcin\\AppData\\Local\\Programs\\Python\\Python39\\lib\\email\\_header_value_parser.py',
   'PYMODULE'),
  ('email.header',
   'C:\\Users\\Marcin\\AppData\\Local\\Programs\\Python\\Python39\\lib\\email\\header.py',
   'PYMODULE'),
  ('email.base64mime',
   'C:\\Users\\Marcin\\AppData\\Local\\Programs\\Python\\Python39\\lib\\email\\base64mime.py',
   'PYMODULE'),
  ('email.charset',
   'C:\\Users\\Marcin\\AppData\\Local\\Programs\\Python\\Python39\\lib\\email\\charset.py',
   'PYMODULE'),
  ('email.encoders',
   'C:\\Users\\Marcin\\AppData\\Local\\Programs\\Python\\Python39\\lib\\email\\encoders.py',
   'PYMODULE'),
  ('email.errors',
   'C:\\Users\\Marcin\\AppData\\Local\\Programs\\Python\\Python39\\lib\\email\\errors.py',
   'PYMODULE'),
  ('csv',
   'C:\\Users\\Marcin\\AppData\\Local\\Programs\\Python\\Python39\\lib\\csv.py',
   'PYMODULE'),
  ('tokenize',
   'C:\\Users\\Marcin\\AppData\\Local\\Programs\\Python\\Python39\\lib\\tokenize.py',
   'PYMODULE'),
  ('importlib.util',
   'C:\\Users\\Marcin\\AppData\\Local\\Programs\\Python\\Python39\\lib\\importlib\\util.py',
   'PYMODULE'),
  ('tarfile',
   'C:\\Users\\Marcin\\AppData\\Local\\Programs\\Python\\Python39\\lib\\tarfile.py',
   'PYMODULE'),
  ('lzma',
   'C:\\Users\\Marcin\\AppData\\Local\\Programs\\Python\\Python39\\lib\\lzma.py',
   'PYMODULE'),
  ('bz2',
   'C:\\Users\\Marcin\\AppData\\Local\\Programs\\Python\\Python39\\lib\\bz2.py',
   'PYMODULE'),
  ('fnmatch',
   'C:\\Users\\Marcin\\AppData\\Local\\Programs\\Python\\Python39\\lib\\fnmatch.py',
   'PYMODULE'),
  ('copy',
   'C:\\Users\\Marcin\\AppData\\Local\\Programs\\Python\\Python39\\lib\\copy.py',
   'PYMODULE'),
  ('gettext',
   'C:\\Users\\Marcin\\AppData\\Local\\Programs\\Python\\Python39\\lib\\gettext.py',
   'PYMODULE'),
  ('ntpath',
   'C:\\Users\\Marcin\\AppData\\Local\\Programs\\Python\\Python39\\lib\\ntpath.py',
   'PYMODULE'),
  ('genericpath',
   'C:\\Users\\Marcin\\AppData\\Local\\Programs\\Python\\Python39\\lib\\genericpath.py',
   'PYMODULE'),
  ('posixpath',
   'C:\\Users\\Marcin\\AppData\\Local\\Programs\\Python\\Python39\\lib\\posixpath.py',
   'PYMODULE'),
  ('stat',
   'C:\\Users\\Marcin\\AppData\\Local\\Programs\\Python\\Python39\\lib\\stat.py',
   'PYMODULE'),
  ('stringprep',
   'C:\\Users\\Marcin\\AppData\\Local\\Programs\\Python\\Python39\\lib\\stringprep.py',
   'PYMODULE'),
  ('_py_abc',
   'C:\\Users\\Marcin\\AppData\\Local\\Programs\\Python\\Python39\\lib\\_py_abc.py',
   'PYMODULE'),
  ('tracemalloc',
   'C:\\Users\\Marcin\\AppData\\Local\\Programs\\Python\\Python39\\lib\\tracemalloc.py',
   'PYMODULE'),
  ('struct',
   'C:\\Users\\Marcin\\AppData\\Local\\Programs\\Python\\Python39\\lib\\struct.py',
   'PYMODULE'),
  ('serial.tools.list_ports',
   'C:\\Users\\Marcin\\AppData\\Local\\Programs\\Python\\Python39\\lib\\site-packages\\serial\\tools\\list_ports.py',
   'PYMODULE'),
  ('serial.tools.list_ports_posix',
   'C:\\Users\\Marcin\\AppData\\Local\\Programs\\Python\\Python39\\lib\\site-packages\\serial\\tools\\list_ports_posix.py',
   'PYMODULE'),
  ('serial.tools.list_ports_osx',
   'C:\\Users\\Marcin\\AppData\\Local\\Programs\\Python\\Python39\\lib\\site-packages\\serial\\tools\\list_ports_osx.py',
   'PYMODULE'),
  ('serial.tools.list_ports_linux',
   'C:\\Users\\Marcin\\AppData\\Local\\Programs\\Python\\Python39\\lib\\site-packages\\serial\\tools\\list_ports_linux.py',
   'PYMODULE'),
  ('serial.tools.list_ports_common',
   'C:\\Users\\Marcin\\AppData\\Local\\Programs\\Python\\Python39\\lib\\site-packages\\serial\\tools\\list_ports_common.py',
   'PYMODULE'),
  ('serial.tools.list_ports_windows',
   'C:\\Users\\Marcin\\AppData\\Local\\Programs\\Python\\Python39\\lib\\site-packages\\serial\\tools\\list_ports_windows.py',
   'PYMODULE'),
  ('serial.win32',
   'C:\\Users\\Marcin\\AppData\\Local\\Programs\\Python\\Python39\\lib\\site-packages\\serial\\win32.py',
   'PYMODULE'),
  ('ctypes.wintypes',
   'C:\\Users\\Marcin\\AppData\\Local\\Programs\\Python\\Python39\\lib\\ctypes\\wintypes.py',
   'PYMODULE'),
  ('serial.tools',
   'C:\\Users\\Marcin\\AppData\\Local\\Programs\\Python\\Python39\\lib\\site-packages\\serial\\tools\\__init__.py',
   'PYMODULE'),
  ('serial',
   'C:\\Users\\Marcin\\AppData\\Local\\Programs\\Python\\Python39\\lib\\site-packages\\serial\\__init__.py',
   'PYMODULE'),
  ('serial.serialjava',
   'C:\\Users\\Marcin\\AppData\\Local\\Programs\\Python\\Python39\\lib\\site-packages\\serial\\serialjava.py',
   'PYMODULE'),
  ('serial.serialposix',
   'C:\\Users\\Marcin\\AppData\\Local\\Programs\\Python\\Python39\\lib\\site-packages\\serial\\serialposix.py',
   'PYMODULE'),
  ('serial.serialwin32',
   'C:\\Users\\Marcin\\AppData\\Local\\Programs\\Python\\Python39\\lib\\site-packages\\serial\\serialwin32.py',
   'PYMODULE'),
  ('serial.serialcli',
   'C:\\Users\\Marcin\\AppData\\Local\\Programs\\Python\\Python39\\lib\\site-packages\\serial\\serialcli.py',
   'PYMODULE'),
  ('serial.serialutil',
   'C:\\Users\\Marcin\\AppData\\Local\\Programs\\Python\\Python39\\lib\\site-packages\\serial\\serialutil.py',
   'PYMODULE'),
  ('PyQt5.uic',
   'C:\\Users\\Marcin\\AppData\\Local\\Programs\\Python\\Python39\\lib\\site-packages\\PyQt5\\uic\\__init__.py',
   'PYMODULE'),
  ('PyQt5.uic.objcreator',
   'C:\\Users\\Marcin\\AppData\\Local\\Programs\\Python\\Python39\\lib\\site-packages\\PyQt5\\uic\\objcreator.py',
   'PYMODULE'),
  ('PyQt5.uic.exceptions',
   'C:\\Users\\Marcin\\AppData\\Local\\Programs\\Python\\Python39\\lib\\site-packages\\PyQt5\\uic\\exceptions.py',
   'PYMODULE'),
  ('PyQt5.uic.Loader.loader',
   'C:\\Users\\Marcin\\AppData\\Local\\Programs\\Python\\Python39\\lib\\site-packages\\PyQt5\\uic\\Loader\\loader.py',
   'PYMODULE'),
  ('PyQt5.uic.Loader',
   'C:\\Users\\Marcin\\AppData\\Local\\Programs\\Python\\Python39\\lib\\site-packages\\PyQt5\\uic\\Loader\\__init__.py',
   'PYMODULE'),
  ('PyQt5.uic.Loader.qobjectcreator',
   'C:\\Users\\Marcin\\AppData\\Local\\Programs\\Python\\Python39\\lib\\site-packages\\PyQt5\\uic\\Loader\\qobjectcreator.py',
   'PYMODULE'),
  ('PyQt5.uic.uiparser',
   'C:\\Users\\Marcin\\AppData\\Local\\Programs\\Python\\Python39\\lib\\site-packages\\PyQt5\\uic\\uiparser.py',
   'PYMODULE'),
  ('PyQt5.uic.properties',
   'C:\\Users\\Marcin\\AppData\\Local\\Programs\\Python\\Python39\\lib\\site-packages\\PyQt5\\uic\\properties.py',
   'PYMODULE'),
  ('PyQt5.uic.port_v3.ascii_upper',
   'C:\\Users\\Marcin\\AppData\\Local\\Programs\\Python\\Python39\\lib\\site-packages\\PyQt5\\uic\\port_v3\\ascii_upper.py',
   'PYMODULE'),
  ('PyQt5.uic.port_v3',
   'C:\\Users\\Marcin\\AppData\\Local\\Programs\\Python\\Python39\\lib\\site-packages\\PyQt5\\uic\\port_v3\\__init__.py',
   'PYMODULE'),
  ('PyQt5.uic.icon_cache',
   'C:\\Users\\Marcin\\AppData\\Local\\Programs\\Python\\Python39\\lib\\site-packages\\PyQt5\\uic\\icon_cache.py',
   'PYMODULE'),
  ('xml.etree.ElementTree',
   'C:\\Users\\Marcin\\AppData\\Local\\Programs\\Python\\Python39\\lib\\xml\\etree\\ElementTree.py',
   'PYMODULE'),
  ('xml.etree.cElementTree',
   'C:\\Users\\Marcin\\AppData\\Local\\Programs\\Python\\Python39\\lib\\xml\\etree\\cElementTree.py',
   'PYMODULE'),
  ('xml.etree.ElementInclude',
   'C:\\Users\\Marcin\\AppData\\Local\\Programs\\Python\\Python39\\lib\\xml\\etree\\ElementInclude.py',
   'PYMODULE'),
  ('xml.etree.ElementPath',
   'C:\\Users\\Marcin\\AppData\\Local\\Programs\\Python\\Python39\\lib\\xml\\etree\\ElementPath.py',
   'PYMODULE'),
  ('xml.etree',
   'C:\\Users\\Marcin\\AppData\\Local\\Programs\\Python\\Python39\\lib\\xml\\etree\\__init__.py',
   'PYMODULE'),
  ('PyQt5.uic.port_v2.string_io',
   'C:\\Users\\Marcin\\AppData\\Local\\Programs\\Python\\Python39\\lib\\site-packages\\PyQt5\\uic\\port_v2\\string_io.py',
   'PYMODULE'),
  ('PyQt5.uic.port_v2',
   'C:\\Users\\Marcin\\AppData\\Local\\Programs\\Python\\Python39\\lib\\site-packages\\PyQt5\\uic\\port_v2\\__init__.py',
   'PYMODULE'),
  ('PyQt5.uic.port_v3.string_io',
   'C:\\Users\\Marcin\\AppData\\Local\\Programs\\Python\\Python39\\lib\\site-packages\\PyQt5\\uic\\port_v3\\string_io.py',
   'PYMODULE'),
  ('PyQt5.uic.Compiler.compiler',
   'C:\\Users\\Marcin\\AppData\\Local\\Programs\\Python\\Python39\\lib\\site-packages\\PyQt5\\uic\\Compiler\\compiler.py',
   'PYMODULE'),
  ('PyQt5.uic.Compiler.qobjectcreator',
   'C:\\Users\\Marcin\\AppData\\Local\\Programs\\Python\\Python39\\lib\\site-packages\\PyQt5\\uic\\Compiler\\qobjectcreator.py',
   'PYMODULE'),
  ('PyQt5.uic.port_v2.as_string',
   'C:\\Users\\Marcin\\AppData\\Local\\Programs\\Python\\Python39\\lib\\site-packages\\PyQt5\\uic\\port_v2\\as_string.py',
   'PYMODULE'),
  ('PyQt5.uic.port_v3.as_string',
   'C:\\Users\\Marcin\\AppData\\Local\\Programs\\Python\\Python39\\lib\\site-packages\\PyQt5\\uic\\port_v3\\as_string.py',
   'PYMODULE'),
  ('PyQt5.uic.Compiler.qtproxies',
   'C:\\Users\\Marcin\\AppData\\Local\\Programs\\Python\\Python39\\lib\\site-packages\\PyQt5\\uic\\Compiler\\qtproxies.py',
   'PYMODULE'),
  ('PyQt5.uic.port_v2.proxy_base',
   'C:\\Users\\Marcin\\AppData\\Local\\Programs\\Python\\Python39\\lib\\site-packages\\PyQt5\\uic\\port_v2\\proxy_base.py',
   'PYMODULE'),
  ('PyQt5.uic.Compiler.proxy_metaclass',
   'C:\\Users\\Marcin\\AppData\\Local\\Programs\\Python\\Python39\\lib\\site-packages\\PyQt5\\uic\\Compiler\\proxy_metaclass.py',
   'PYMODULE'),
  ('PyQt5.uic.port_v3.proxy_base',
   'C:\\Users\\Marcin\\AppData\\Local\\Programs\\Python\\Python39\\lib\\site-packages\\PyQt5\\uic\\port_v3\\proxy_base.py',
   'PYMODULE'),
  ('PyQt5.uic.Compiler.misc',
   'C:\\Users\\Marcin\\AppData\\Local\\Programs\\Python\\Python39\\lib\\site-packages\\PyQt5\\uic\\Compiler\\misc.py',
   'PYMODULE'),
  ('PyQt5.uic.Compiler.indenter',
   'C:\\Users\\Marcin\\AppData\\Local\\Programs\\Python\\Python39\\lib\\site-packages\\PyQt5\\uic\\Compiler\\indenter.py',
   'PYMODULE'),
  ('PyQt5.uic.Compiler',
   'C:\\Users\\Marcin\\AppData\\Local\\Programs\\Python\\Python39\\lib\\site-packages\\PyQt5\\uic\\Compiler\\__init__.py',
   'PYMODULE'),
  ('PyQt5',
   'C:\\Users\\Marcin\\AppData\\Local\\Programs\\Python\\Python39\\lib\\site-packages\\PyQt5\\__init__.py',
   'PYMODULE')],
 [('VCRUNTIME140.dll',
   'C:\\Users\\Marcin\\AppData\\Local\\Programs\\Python\\Python39\\VCRUNTIME140.dll',
   'BINARY'),
  ('python39.dll',
   'C:\\Users\\Marcin\\AppData\\Local\\Programs\\Python\\Python39\\python39.dll',
   'BINARY'),
  ('opengl32sw.dll',
   'C:\\Users\\Marcin\\AppData\\Local\\Programs\\Python\\Python39\\lib\\site-packages\\PyQt5\\Qt5\\bin\\opengl32sw.dll',
   'BINARY'),
  ('PyQt5\\Qt5\\plugins\\imageformats\\qtga.dll',
   'C:\\Users\\Marcin\\AppData\\Local\\Programs\\Python\\Python39\\lib\\site-packages\\PyQt5\\Qt5\\plugins\\imageformats\\qtga.dll',
   'BINARY'),
  ('PyQt5\\Qt5\\plugins\\imageformats\\qtiff.dll',
   'C:\\Users\\Marcin\\AppData\\Local\\Programs\\Python\\Python39\\lib\\site-packages\\PyQt5\\Qt5\\plugins\\imageformats\\qtiff.dll',
   'BINARY'),
  ('PyQt5\\Qt5\\plugins\\imageformats\\qwbmp.dll',
   'C:\\Users\\Marcin\\AppData\\Local\\Programs\\Python\\Python39\\lib\\site-packages\\PyQt5\\Qt5\\plugins\\imageformats\\qwbmp.dll',
   'BINARY'),
  ('PyQt5\\Qt5\\plugins\\iconengines\\qsvgicon.dll',
   'C:\\Users\\Marcin\\AppData\\Local\\Programs\\Python\\Python39\\lib\\site-packages\\PyQt5\\Qt5\\plugins\\iconengines\\qsvgicon.dll',
   'BINARY'),
  ('PyQt5\\Qt5\\plugins\\platforms\\qminimal.dll',
   'C:\\Users\\Marcin\\AppData\\Local\\Programs\\Python\\Python39\\lib\\site-packages\\PyQt5\\Qt5\\plugins\\platforms\\qminimal.dll',
   'BINARY'),
  ('PyQt5\\Qt5\\plugins\\platformthemes\\qxdgdesktopportal.dll',
   'C:\\Users\\Marcin\\AppData\\Local\\Programs\\Python\\Python39\\lib\\site-packages\\PyQt5\\Qt5\\plugins\\platformthemes\\qxdgdesktopportal.dll',
   'BINARY'),
  ('PyQt5\\Qt5\\plugins\\platforms\\qoffscreen.dll',
   'C:\\Users\\Marcin\\AppData\\Local\\Programs\\Python\\Python39\\lib\\site-packages\\PyQt5\\Qt5\\plugins\\platforms\\qoffscreen.dll',
   'BINARY'),
  ('PyQt5\\Qt5\\plugins\\imageformats\\qgif.dll',
   'C:\\Users\\Marcin\\AppData\\Local\\Programs\\Python\\Python39\\lib\\site-packages\\PyQt5\\Qt5\\plugins\\imageformats\\qgif.dll',
   'BINARY'),
  ('PyQt5\\Qt5\\plugins\\imageformats\\qwebp.dll',
   'C:\\Users\\Marcin\\AppData\\Local\\Programs\\Python\\Python39\\lib\\site-packages\\PyQt5\\Qt5\\plugins\\imageformats\\qwebp.dll',
   'BINARY'),
  ('PyQt5\\Qt5\\plugins\\platforms\\qwebgl.dll',
   'C:\\Users\\Marcin\\AppData\\Local\\Programs\\Python\\Python39\\lib\\site-packages\\PyQt5\\Qt5\\plugins\\platforms\\qwebgl.dll',
   'BINARY'),
  ('PyQt5\\Qt5\\plugins\\imageformats\\qsvg.dll',
   'C:\\Users\\Marcin\\AppData\\Local\\Programs\\Python\\Python39\\lib\\site-packages\\PyQt5\\Qt5\\plugins\\imageformats\\qsvg.dll',
   'BINARY'),
  ('libGLESv2.dll',
   'C:\\Users\\Marcin\\AppData\\Local\\Programs\\Python\\Python39\\lib\\site-packages\\PyQt5\\Qt5\\bin\\libGLESv2.dll',
   'BINARY'),
  ('PyQt5\\Qt5\\plugins\\imageformats\\qjpeg.dll',
   'C:\\Users\\Marcin\\AppData\\Local\\Programs\\Python\\Python39\\lib\\site-packages\\PyQt5\\Qt5\\plugins\\imageformats\\qjpeg.dll',
   'BINARY'),
  ('PyQt5\\Qt5\\plugins\\imageformats\\qicns.dll',
   'C:\\Users\\Marcin\\AppData\\Local\\Programs\\Python\\Python39\\lib\\site-packages\\PyQt5\\Qt5\\plugins\\imageformats\\qicns.dll',
   'BINARY'),
  ('d3dcompiler_47.dll',
   'C:\\Users\\Marcin\\AppData\\Local\\Programs\\Python\\Python39\\lib\\site-packages\\PyQt5\\Qt5\\bin\\d3dcompiler_47.dll',
   'BINARY'),
  ('PyQt5\\Qt5\\plugins\\imageformats\\qico.dll',
   'C:\\Users\\Marcin\\AppData\\Local\\Programs\\Python\\Python39\\lib\\site-packages\\PyQt5\\Qt5\\plugins\\imageformats\\qico.dll',
   'BINARY'),
  ('libEGL.dll',
   'C:\\Users\\Marcin\\AppData\\Local\\Programs\\Python\\Python39\\lib\\site-packages\\PyQt5\\Qt5\\bin\\libEGL.dll',
   'BINARY'),
  ('PyQt5\\Qt5\\plugins\\platforms\\qwindows.dll',
   'C:\\Users\\Marcin\\AppData\\Local\\Programs\\Python\\Python39\\lib\\site-packages\\PyQt5\\Qt5\\plugins\\platforms\\qwindows.dll',
   'BINARY'),
  ('PyQt5\\Qt5\\plugins\\styles\\qwindowsvistastyle.dll',
   'C:\\Users\\Marcin\\AppData\\Local\\Programs\\Python\\Python39\\lib\\site-packages\\PyQt5\\Qt5\\plugins\\styles\\qwindowsvistastyle.dll',
   'BINARY'),
  ('select',
   'C:\\Users\\Marcin\\AppData\\Local\\Programs\\Python\\Python39\\DLLs\\select.pyd',
   'EXTENSION'),
  ('unicodedata',
   'C:\\Users\\Marcin\\AppData\\Local\\Programs\\Python\\Python39\\DLLs\\unicodedata.pyd',
   'EXTENSION'),
  ('_socket',
   'C:\\Users\\Marcin\\AppData\\Local\\Programs\\Python\\Python39\\DLLs\\_socket.pyd',
   'EXTENSION'),
  ('_decimal',
   'C:\\Users\\Marcin\\AppData\\Local\\Programs\\Python\\Python39\\DLLs\\_decimal.pyd',
   'EXTENSION'),
  ('_overlapped',
   'C:\\Users\\Marcin\\AppData\\Local\\Programs\\Python\\Python39\\DLLs\\_overlapped.pyd',
   'EXTENSION'),
  ('_ssl',
   'C:\\Users\\Marcin\\AppData\\Local\\Programs\\Python\\Python39\\DLLs\\_ssl.pyd',
   'EXTENSION'),
  ('_asyncio',
   'C:\\Users\\Marcin\\AppData\\Local\\Programs\\Python\\Python39\\DLLs\\_asyncio.pyd',
   'EXTENSION'),
  ('_queue',
   'C:\\Users\\Marcin\\AppData\\Local\\Programs\\Python\\Python39\\DLLs\\_queue.pyd',
   'EXTENSION'),
  ('_ctypes',
   'C:\\Users\\Marcin\\AppData\\Local\\Programs\\Python\\Python39\\DLLs\\_ctypes.pyd',
   'EXTENSION'),
  ('_multiprocessing',
   'C:\\Users\\Marcin\\AppData\\Local\\Programs\\Python\\Python39\\DLLs\\_multiprocessing.pyd',
   'EXTENSION'),
  ('pyexpat',
   'C:\\Users\\Marcin\\AppData\\Local\\Programs\\Python\\Python39\\DLLs\\pyexpat.pyd',
   'EXTENSION'),
  ('_hashlib',
   'C:\\Users\\Marcin\\AppData\\Local\\Programs\\Python\\Python39\\DLLs\\_hashlib.pyd',
   'EXTENSION'),
  ('_lzma',
   'C:\\Users\\Marcin\\AppData\\Local\\Programs\\Python\\Python39\\DLLs\\_lzma.pyd',
   'EXTENSION'),
  ('_bz2',
   'C:\\Users\\Marcin\\AppData\\Local\\Programs\\Python\\Python39\\DLLs\\_bz2.pyd',
   'EXTENSION'),
  ('PyQt5.QtCore',
   'C:\\Users\\Marcin\\AppData\\Local\\Programs\\Python\\Python39\\lib\\site-packages\\PyQt5\\QtCore.pyd',
   'EXTENSION'),
  ('_elementtree',
   'C:\\Users\\Marcin\\AppData\\Local\\Programs\\Python\\Python39\\DLLs\\_elementtree.pyd',
   'EXTENSION'),
  ('PyQt5.QtGui',
   'C:\\Users\\Marcin\\AppData\\Local\\Programs\\Python\\Python39\\lib\\site-packages\\PyQt5\\QtGui.pyd',
   'EXTENSION'),
  ('PyQt5.QtWidgets',
   'C:\\Users\\Marcin\\AppData\\Local\\Programs\\Python\\Python39\\lib\\site-packages\\PyQt5\\QtWidgets.pyd',
   'EXTENSION'),
  ('PyQt5.sip',
   'C:\\Users\\Marcin\\AppData\\Local\\Programs\\Python\\Python39\\lib\\site-packages\\PyQt5\\sip.cp39-win_amd64.pyd',
   'EXTENSION'),
  ('Qt5Core.dll',
   'C:\\Users\\Marcin\\AppData\\Local\\Programs\\Python\\Python39\\lib\\site-packages\\PyQt5\\Qt5\\bin\\Qt5Core.dll',
   'BINARY'),
  ('Qt5Gui.dll',
   'C:\\Users\\Marcin\\AppData\\Local\\Programs\\Python\\Python39\\lib\\site-packages\\PyQt5\\Qt5\\bin\\Qt5Gui.dll',
   'BINARY'),
  ('Qt5Svg.dll',
   'C:\\Users\\Marcin\\AppData\\Local\\Programs\\Python\\Python39\\lib\\site-packages\\PyQt5\\Qt5\\bin\\Qt5Svg.dll',
   'BINARY'),
  ('Qt5DBus.dll',
   'C:\\Users\\Marcin\\AppData\\Local\\Programs\\Python\\Python39\\lib\\site-packages\\PyQt5\\Qt5\\bin\\Qt5DBus.dll',
   'BINARY'),
  ('Qt5Network.dll',
   'C:\\Users\\Marcin\\AppData\\Local\\Programs\\Python\\Python39\\lib\\site-packages\\PyQt5\\Qt5\\bin\\Qt5Network.dll',
   'BINARY'),
  ('MSVCP140.dll', 'C:\\WINDOWS\\system32\\MSVCP140.dll', 'BINARY'),
  ('Qt5Quick.dll',
   'C:\\Users\\Marcin\\AppData\\Local\\Programs\\Python\\Python39\\lib\\site-packages\\PyQt5\\Qt5\\bin\\Qt5Quick.dll',
   'BINARY'),
  ('Qt5WebSockets.dll',
   'C:\\Users\\Marcin\\AppData\\Local\\Programs\\Python\\Python39\\lib\\site-packages\\PyQt5\\Qt5\\bin\\Qt5WebSockets.dll',
   'BINARY'),
  ('VCRUNTIME140_1.dll',
   'C:\\Users\\Marcin\\AppData\\Local\\Programs\\Python\\Python39\\lib\\site-packages\\PyQt5\\Qt5\\bin\\VCRUNTIME140_1.dll',
   'BINARY'),
  ('Qt5Widgets.dll',
   'C:\\Users\\Marcin\\AppData\\Local\\Programs\\Python\\Python39\\lib\\site-packages\\PyQt5\\Qt5\\bin\\Qt5Widgets.dll',
   'BINARY'),
  ('libssl-1_1.dll',
   'C:\\Users\\Marcin\\AppData\\Local\\Programs\\Python\\Python39\\DLLs\\libssl-1_1.dll',
   'BINARY'),
  ('libcrypto-1_1.dll',
   'C:\\Users\\Marcin\\AppData\\Local\\Programs\\Python\\Python39\\DLLs\\libcrypto-1_1.dll',
   'BINARY'),
  ('libffi-7.dll',
   'C:\\Users\\Marcin\\AppData\\Local\\Programs\\Python\\Python39\\DLLs\\libffi-7.dll',
   'BINARY'),
  ('python3.dll',
   'C:\\Users\\Marcin\\AppData\\Local\\Programs\\Python\\Python39\\python3.dll',
   'BINARY'),
  ('MSVCP140_1.dll',
   'C:\\Users\\Marcin\\AppData\\Local\\Programs\\Python\\Python39\\lib\\site-packages\\PyQt5\\Qt5\\bin\\MSVCP140_1.dll',
   'BINARY'),
  ('Qt5Qml.dll',
   'C:\\Users\\Marcin\\AppData\\Local\\Programs\\Python\\Python39\\lib\\site-packages\\PyQt5\\Qt5\\bin\\Qt5Qml.dll',
   'BINARY'),
  ('Qt5QmlModels.dll',
   'C:\\Users\\Marcin\\AppData\\Local\\Programs\\Python\\Python39\\lib\\site-packages\\PyQt5\\Qt5\\bin\\Qt5QmlModels.dll',
   'BINARY')],
 [],
 [],
 [('base_library.zip',
   'C:\\Users\\Marcin\\Desktop\\110a\\python\\build\\110A-Cfg\\base_library.zip',
   'DATA'),
  ('PyQt5\\Qt5\\translations\\qtbase_zh_TW.qm',
   'C:\\Users\\Marcin\\AppData\\Local\\Programs\\Python\\Python39\\lib\\site-packages\\PyQt5\\Qt5\\translations\\qtbase_zh_TW.qm',
   'DATA'),
  ('PyQt5\\uic\\widget-plugins\\qtprintsupport.py',
   'C:\\Users\\Marcin\\AppData\\Local\\Programs\\Python\\Python39\\lib\\site-packages\\PyQt5\\uic\\widget-plugins\\qtprintsupport.py',
   'DATA'),
  ('PyQt5\\Qt5\\translations\\qtbase_it.qm',
   'C:\\Users\\Marcin\\AppData\\Local\\Programs\\Python\\Python39\\lib\\site-packages\\PyQt5\\Qt5\\translations\\qtbase_it.qm',
   'DATA'),
  ('PyQt5\\uic\\widget-plugins\\__pycache__\\qtquickwidgets.cpython-39.pyc',
   'C:\\Users\\Marcin\\AppData\\Local\\Programs\\Python\\Python39\\lib\\site-packages\\PyQt5\\uic\\widget-plugins\\__pycache__\\qtquickwidgets.cpython-39.pyc',
   'DATA'),
  ('PyQt5\\uic\\widget-plugins\\__pycache__\\qaxcontainer.cpython-39.pyc',
   'C:\\Users\\Marcin\\AppData\\Local\\Programs\\Python\\Python39\\lib\\site-packages\\PyQt5\\uic\\widget-plugins\\__pycache__\\qaxcontainer.cpython-39.pyc',
   'DATA'),
  ('PyQt5\\uic\\widget-plugins\\qaxcontainer.py',
   'C:\\Users\\Marcin\\AppData\\Local\\Programs\\Python\\Python39\\lib\\site-packages\\PyQt5\\uic\\widget-plugins\\qaxcontainer.py',
   'DATA'),
  ('PyQt5\\Qt5\\translations\\qtbase_fi.qm',
   'C:\\Users\\Marcin\\AppData\\Local\\Programs\\Python\\Python39\\lib\\site-packages\\PyQt5\\Qt5\\translations\\qtbase_fi.qm',
   'DATA'),
  ('PyQt5\\Qt5\\translations\\qtbase_de.qm',
   'C:\\Users\\Marcin\\AppData\\Local\\Programs\\Python\\Python39\\lib\\site-packages\\PyQt5\\Qt5\\translations\\qtbase_de.qm',
   'DATA'),
  ('PyQt5\\Qt5\\translations\\qtbase_uk.qm',
   'C:\\Users\\Marcin\\AppData\\Local\\Programs\\Python\\Python39\\lib\\site-packages\\PyQt5\\Qt5\\translations\\qtbase_uk.qm',
   'DATA'),
  ('PyQt5\\Qt5\\translations\\qtbase_sk.qm',
   'C:\\Users\\Marcin\\AppData\\Local\\Programs\\Python\\Python39\\lib\\site-packages\\PyQt5\\Qt5\\translations\\qtbase_sk.qm',
   'DATA'),
  ('PyQt5\\Qt5\\translations\\qtbase_hu.qm',
   'C:\\Users\\Marcin\\AppData\\Local\\Programs\\Python\\Python39\\lib\\site-packages\\PyQt5\\Qt5\\translations\\qtbase_hu.qm',
   'DATA'),
  ('PyQt5\\uic\\widget-plugins\\__pycache__\\qtcharts.cpython-39.pyc',
   'C:\\Users\\Marcin\\AppData\\Local\\Programs\\Python\\Python39\\lib\\site-packages\\PyQt5\\uic\\widget-plugins\\__pycache__\\qtcharts.cpython-39.pyc',
   'DATA'),
  ('PyQt5\\Qt5\\translations\\qtbase_tr.qm',
   'C:\\Users\\Marcin\\AppData\\Local\\Programs\\Python\\Python39\\lib\\site-packages\\PyQt5\\Qt5\\translations\\qtbase_tr.qm',
   'DATA'),
  ('PyQt5\\uic\\widget-plugins\\qtcharts.py',
   'C:\\Users\\Marcin\\AppData\\Local\\Programs\\Python\\Python39\\lib\\site-packages\\PyQt5\\uic\\widget-plugins\\qtcharts.py',
   'DATA'),
  ('PyQt5\\Qt5\\translations\\qtbase_bg.qm',
   'C:\\Users\\Marcin\\AppData\\Local\\Programs\\Python\\Python39\\lib\\site-packages\\PyQt5\\Qt5\\translations\\qtbase_bg.qm',
   'DATA'),
  ('PyQt5\\Qt5\\translations\\qtbase_ar.qm',
   'C:\\Users\\Marcin\\AppData\\Local\\Programs\\Python\\Python39\\lib\\site-packages\\PyQt5\\Qt5\\translations\\qtbase_ar.qm',
   'DATA'),
  ('PyQt5\\Qt5\\translations\\qtbase_gd.qm',
   'C:\\Users\\Marcin\\AppData\\Local\\Programs\\Python\\Python39\\lib\\site-packages\\PyQt5\\Qt5\\translations\\qtbase_gd.qm',
   'DATA'),
  ('PyQt5\\uic\\widget-plugins\\__pycache__\\qtwebenginewidgets.cpython-39.pyc',
   'C:\\Users\\Marcin\\AppData\\Local\\Programs\\Python\\Python39\\lib\\site-packages\\PyQt5\\uic\\widget-plugins\\__pycache__\\qtwebenginewidgets.cpython-39.pyc',
   'DATA'),
  ('PyQt5\\Qt5\\translations\\qtbase_ja.qm',
   'C:\\Users\\Marcin\\AppData\\Local\\Programs\\Python\\Python39\\lib\\site-packages\\PyQt5\\Qt5\\translations\\qtbase_ja.qm',
   'DATA'),
  ('PyQt5\\uic\\widget-plugins\\qtquickwidgets.py',
   'C:\\Users\\Marcin\\AppData\\Local\\Programs\\Python\\Python39\\lib\\site-packages\\PyQt5\\uic\\widget-plugins\\qtquickwidgets.py',
   'DATA'),
  ('PyQt5\\Qt5\\translations\\qtbase_ko.qm',
   'C:\\Users\\Marcin\\AppData\\Local\\Programs\\Python\\Python39\\lib\\site-packages\\PyQt5\\Qt5\\translations\\qtbase_ko.qm',
   'DATA'),
  ('PyQt5\\uic\\widget-plugins\\qtwebenginewidgets.py',
   'C:\\Users\\Marcin\\AppData\\Local\\Programs\\Python\\Python39\\lib\\site-packages\\PyQt5\\uic\\widget-plugins\\qtwebenginewidgets.py',
   'DATA'),
  ('PyQt5\\Qt5\\translations\\qtbase_lv.qm',
   'C:\\Users\\Marcin\\AppData\\Local\\Programs\\Python\\Python39\\lib\\site-packages\\PyQt5\\Qt5\\translations\\qtbase_lv.qm',
   'DATA'),
  ('PyQt5\\Qt5\\translations\\qtbase_fr.qm',
   'C:\\Users\\Marcin\\AppData\\Local\\Programs\\Python\\Python39\\lib\\site-packages\\PyQt5\\Qt5\\translations\\qtbase_fr.qm',
   'DATA'),
  ('PyQt5\\Qt5\\translations\\qtbase_es.qm',
   'C:\\Users\\Marcin\\AppData\\Local\\Programs\\Python\\Python39\\lib\\site-packages\\PyQt5\\Qt5\\translations\\qtbase_es.qm',
   'DATA'),
  ('PyQt5\\uic\\widget-plugins\\qtwebkit.py',
   'C:\\Users\\Marcin\\AppData\\Local\\Programs\\Python\\Python39\\lib\\site-packages\\PyQt5\\uic\\widget-plugins\\qtwebkit.py',
   'DATA'),
  ('PyQt5\\uic\\widget-plugins\\__pycache__\\qscintilla.cpython-39.pyc',
   'C:\\Users\\Marcin\\AppData\\Local\\Programs\\Python\\Python39\\lib\\site-packages\\PyQt5\\uic\\widget-plugins\\__pycache__\\qscintilla.cpython-39.pyc',
   'DATA'),
  ('PyQt5\\Qt5\\translations\\qtbase_cs.qm',
   'C:\\Users\\Marcin\\AppData\\Local\\Programs\\Python\\Python39\\lib\\site-packages\\PyQt5\\Qt5\\translations\\qtbase_cs.qm',
   'DATA'),
  ('PyQt5\\Qt5\\translations\\qtbase_he.qm',
   'C:\\Users\\Marcin\\AppData\\Local\\Programs\\Python\\Python39\\lib\\site-packages\\PyQt5\\Qt5\\translations\\qtbase_he.qm',
   'DATA'),
  ('PyQt5\\Qt5\\translations\\qtbase_ca.qm',
   'C:\\Users\\Marcin\\AppData\\Local\\Programs\\Python\\Python39\\lib\\site-packages\\PyQt5\\Qt5\\translations\\qtbase_ca.qm',
   'DATA'),
  ('PyQt5\\uic\\widget-plugins\\__pycache__\\qtprintsupport.cpython-39.pyc',
   'C:\\Users\\Marcin\\AppData\\Local\\Programs\\Python\\Python39\\lib\\site-packages\\PyQt5\\uic\\widget-plugins\\__pycache__\\qtprintsupport.cpython-39.pyc',
   'DATA'),
  ('PyQt5\\Qt5\\translations\\qtbase_da.qm',
   'C:\\Users\\Marcin\\AppData\\Local\\Programs\\Python\\Python39\\lib\\site-packages\\PyQt5\\Qt5\\translations\\qtbase_da.qm',
   'DATA'),
  ('PyQt5\\Qt5\\translations\\qtbase_pl.qm',
   'C:\\Users\\Marcin\\AppData\\Local\\Programs\\Python\\Python39\\lib\\site-packages\\PyQt5\\Qt5\\translations\\qtbase_pl.qm',
   'DATA'),
  ('PyQt5\\Qt5\\translations\\qtbase_ru.qm',
   'C:\\Users\\Marcin\\AppData\\Local\\Programs\\Python\\Python39\\lib\\site-packages\\PyQt5\\Qt5\\translations\\qtbase_ru.qm',
   'DATA'),
  ('PyQt5\\uic\\widget-plugins\\qscintilla.py',
   'C:\\Users\\Marcin\\AppData\\Local\\Programs\\Python\\Python39\\lib\\site-packages\\PyQt5\\uic\\widget-plugins\\qscintilla.py',
   'DATA'),
  ('PyQt5\\uic\\widget-plugins\\__pycache__\\qtwebkit.cpython-39.pyc',
   'C:\\Users\\Marcin\\AppData\\Local\\Programs\\Python\\Python39\\lib\\site-packages\\PyQt5\\uic\\widget-plugins\\__pycache__\\qtwebkit.cpython-39.pyc',
   'DATA'),
  ('PyQt5\\Qt5\\translations\\qtbase_en.qm',
   'C:\\Users\\Marcin\\AppData\\Local\\Programs\\Python\\Python39\\lib\\site-packages\\PyQt5\\Qt5\\translations\\qtbase_en.qm',
   'DATA')],
 [])
